Open Stats Lab Additional Analytic Skills in R Using Data from Gino, Kouchaki, and Galinsky (2015)
…
Always save your results as new R data frames to track changes.

(gino_means <- gino_clean %>%
  mutate(
    feelings_of_impurity = select(gino_clean, starts_with("impurity")) %>% rowMeans(),
    feelings_of_discomfort = select(gino_clean, starts_with("dissonance")) %>% rowMeans(),
    negative_affect = select(gino_clean, starts_with("neg")) %>% rowMeans(),
    positive_affect = select(gino_clean, starts_with("pos")) %>% rowMeans(),
    embarrassment = select(gino_clean, embarrassed, ashamed) %>% rowMeans(),
    self_alienation = select(gino_clean, starts_with("alien")) %>% rowMeans()
  ) %>%
  select(condition, feelings_of_impurity, feelings_of_discomfort, negative_affect,
         positive_affect, embarrassment, self_alienation, decided_to_help))

## # A tibble: 288 x 8
##    condition feelings_of_imp~ feelings_of_dis~ negative_affect
##    <fct>                <dbl>            <dbl>           <dbl>
##  1 neutral                  1             2.67            2.67
##  2 neutral                  1             2               3   
##  3 neutral                  1             2               2   
##  4 neutral                  1             1               1   
##  5 neutral                  1             1               1   
##  6 neutral                  2             2.33            1.33
##  7 neutral                  1             1.33            1   
##  8 neutral                  1             1               1   
##  9 neutral                  1             1               1   
## 10 neutral                  1             1               3.67
## # ... with 278 more rows, and 4 more variables: positive_affect <dbl>,
## #   embarrassment <dbl>, self_alienation <dbl>, decided_to_help <dbl>
…
